12 10.1 이 장의 목표 – Modern Statistics for Modern Biology
…
finch.csv 데이터를 불러오고, 이것이 이분 네트워크를 나타냄을 강조하도록 그리는 실험을 해보세요.

__

해결책

__

다음 코드의 출력은 그림 10.5에 나와 있습니다.

finch = readr::read_csv("../data/finch.csv", comment = "#", col_types = "cc")
finch __

# A tibble: 122 × 2
   .tail .head             
   <chr> <chr>             
 1 C     Large ground finch
 2 D     Large ground finch
 3 E     Large ground finch
 4 F     Large ground finch
 5 G     Large ground finch
 6 H     Large ground finch
 7 I     Large ground finch
 8 J     Large ground finch
 9 L     Large ground finch
10 M     Large ground finch
# ℹ 112 more rows
…
