…
__

Solution

__

The output of the following code is shown in Figure 10.5.

    
    
    finch = readr::read_csv("../data/finch.csv", comment = "#", col_types = "cc")
    finch __
    
    
    # A tibble: 122 × 2
       .tail .head             
       <chr> <chr>             
     1 C     Large ground finch
     2 D     Large ground finch
     3 E     Large ground finch
     4 F     Large ground finch
     5 G     Large ground finch
     6 H     Large ground finch
     7 I     Large ground finch
     8 J     Large ground finch
     9 L     Large ground finch
    10 M     Large ground finch
    # ℹ 112 more rows
…
