…
    
    
    library("readr")
    library("dplyr")
    cellclasses = c("T_cells", "Tumor", "DCs", "other_cells")
    brcalymphnode = lapply(cellclasses, function(k) {
        read_csv(file.path("..", "data", sprintf("99_4525D-%s.txt", k))) |>
        transmute(x = globalX, y = globalY, class = k)
    }) |> bind_rows() |> mutate(class = factor(class))
    
    brcalymphnode __
    
    
    # A tibble: 209,462 × 3
           x     y class  
       <dbl> <dbl> <fct>  
     1  6355 10382 T_cells
     2  6356 10850 T_cells
     3  6357 11070 T_cells
     4  6357 11082 T_cells
     5  6358 10600 T_cells
     6  6361 10301 T_cells
     7  6369 10309 T_cells
     8  6374 10395 T_cells
     9  6377 10448 T_cells
    10  6379 10279 T_cells
    # ℹ 209,452 more rows
…
