…
    
    
    library("dplyr")
    simdat = lapply(c(0, 8), function(mx) {
      lapply(c(0,8), function(my) {
        tibble(x = rnorm(100, mean = mx, sd = 2),
               y = rnorm(100, mean = my, sd = 2),
               class = paste(mx, my, sep = ":"))
       }) %>% bind_rows
    }) %>% bind_rows
    simdat __
    
    
    # A tibble: 400 × 3
            x      y class
        <dbl>  <dbl> <chr>  
     1 -2.42  -4.59  0:0    
     2  1.89  -1.56  0:0    
     3  0.558  2.17  0:0    
     4  2.51  -0.873 0:0    
     5 -2.52  -0.766 0:0    
     6  3.62   0.953 0:0    
     7  0.774  2.43  0:0    
     8 -1.71  -2.63  0:0    
     9  2.01   1.28  0:0    
    10  2.03  -1.25  0:0    
    # ℹ 390 more rows
…
